(footprint "7.7mm NPTH pot hole" (version 20211014) (generator pcbnew)
  (layer "F.Cu")
  (tedit 0)
  (attr through_hole)
  (fp_text reference "REF**" (at 0 -5 unlocked) (layer "F.SilkS") hide
    (effects (font (size 1 1) (thickness 0.15)))
    (tstamp e64a447c-8ab1-4920-a2ee-50db32043c3c)
  )
  (fp_text value "7.2mm NPTH" (at 0 5 unlocked) (layer "F.Fab") hide
    (effects (font (size 1 1) (thickness 0.15)))
    (tstamp cd8bfe48-613c-4adc-8292-d3270f8384d3)
  )
  (pad "" np_thru_hole circle (at 0 0) (size 7.7 7.7) (drill 7.7) (layers F&B.Cu *.Mask) (tstamp d919798b-fc3a-4025-8790-e94321178fee))
)
